<?xml version='1.0' encoding='UTF-8' standalone='no'?>
<!-- Created with Fritzing (http://www.fritzing.org/) -->
<svg xmlns:svg='http://www.w3.org/2000/svg' xmlns='http://www.w3.org/2000/svg' version='1.2' baseProfile='tiny' x='0in' y='0in' width='0.905389in' height='0.507861in' viewBox='0 0 65.188 36.566' >
<g partID='56280'><g transform='translate(65.188,36.566)' ><g transform='matrix(4.44089e-16,-1,-1,-4.44089e-16,0,0)'  ><g xmlns="http://www.w3.org/2000/svg" id="schematic">
<g width="0.208" x="10.632" y="0.525" xmlns="http://www.w3.org/2000/svg" height="0.208" id="connector1terminal"/>
<g width="0.208" x="10.648" y="64.314" xmlns="http://www.w3.org/2000/svg" height="0.207" id="connector0terminal"/>
<rect width="1.375" x="10.028" y="0.421" xmlns="http://www.w3.org/2000/svg" height="10.339" id="connector1pin"/>
<rect width="1.375" x="10.028" y="53" xmlns="http://www.w3.org/2000/svg" height="11.767" id="connector0pin"/>
<line fill="none" xmlns="http://www.w3.org/2000/svg" stroke="#000000" stroke-linecap="round" y1="41.171" stroke-width="2.4" x1="10.752" y2="64.123" x2="10.752"/>
<line fill="none" xmlns="http://www.w3.org/2000/svg" stroke="#000000" stroke-linecap="round" y1="41.683" stroke-width="2.4" x1="21.171" y2="41.683" x2="0.333"/>
<line fill="none" xmlns="http://www.w3.org/2000/svg" stroke="#000000" stroke-linecap="round" y1="0.731" stroke-width="2.4" x1="10.752" y2="22.393" x2="10.752"/>
<polygon fill="none" points="10.752,41.638,5.486,32.515,0.218,23.393,10.752,23.393,21.285,23.393,16.02,32.515" xmlns="http://www.w3.org/2000/svg" stroke="#000000" stroke-linejoin="round" stroke-linecap="round" stroke-width="2.4"/>
<path xmlns="http://www.w3.org/2000/svg" d="M27.775,47.148l2.558,-2.037l1.465,-1.169l1.091,-0.871l3.461,9.58L27.775,47.148L27.775,47.148z"/>
<path xmlns="http://www.w3.org/2000/svg" d="M21.226,52.138l2.556,-2.039l1.464,-1.168l1.09,-0.87l3.469,9.581L21.226,52.138L21.226,52.138z"/>
<line fill="none" xmlns="http://www.w3.org/2000/svg" stroke="#000000" stroke-linecap="round" y1="37.577" stroke-width="2.4" x1="24.281" y2="48.061" x2="32.948"/>
<line fill="none" xmlns="http://www.w3.org/2000/svg" stroke="#000000" stroke-linecap="round" y1="45.54" stroke-width="2.4" x1="19.948" y2="52.274" x2="25.515"/>
</g>
</g></g></g><g partID='56280' id='partLabel'><g transform='translate(32.9378,4.55732)' ><g font-size='9' font-style='normal' font-weight='normal' fill='#000000' font-family="'DroidSans'" id='schematicLabel' fill-opacity='1' stroke='none' ><text x='0' y='6.75'> </text></g></g></g></svg>